id;code;description
1;not valid;Тип сообщения применим при отрицательном результате проверки на соответствие файла tk.sig ТК и ЦХЭД.zip, то есть ЭП не валидна.
2;accepted;Тип сообщения применим при успешном приеме ТК в Систему
3;not accepted;Тип сообщения применим при неуспешном приеме ТК в Систему
4;formed AK;Тип сообщения применим при успешно сформированном объекте АК
5;not_registered_organisation;ТК пришел от ОИК, не зарегистрированной в системе ЦХЭД (см. Организации : Справочник организаций  - Сертификат ИБ для обмена данными с ЦХЭД , Подключение ОИК к ЦХЭД )
